<?xml version="1.0" encoding="UTF-8" standalone="no"?>
<!-- Created with Inkscape (http://www.inkscape.org/) -->

<svg
   xmlns:dc="http://purl.org/dc/elements/1.1/"
   xmlns:cc="http://creativecommons.org/ns#"
   xmlns:rdf="http://www.w3.org/1999/02/22-rdf-syntax-ns#"
   xmlns:svg="http://www.w3.org/2000/svg"
   xmlns="http://www.w3.org/2000/svg"
   xmlns:sodipodi="http://sodipodi.sourceforge.net/DTD/sodipodi-0.dtd"
   xmlns:inkscape="http://www.inkscape.org/namespaces/inkscape"
   width="124.04329mm"
   height="37.943996mm"
   viewBox="0 0 124.04329 37.943996"
   version="1.1"
   id="svg1099"
   inkscape:version="0.92.3 (2405546, 2018-03-11)"
   sodipodi:docname="logo-typography.svg">
  <defs
     id="defs1093">
    <clipPath
       clipPathUnits="userSpaceOnUse"
       id="clipPath22">
      <path
         d="M 0,736.935 H 841.89 V 0 H 0 Z"
         id="path20"
         inkscape:connector-curvature="0" />
    </clipPath>
  </defs>
  <sodipodi:namedview
     id="base"
     pagecolor="#ffffff"
     bordercolor="#666666"
     borderopacity="1.0"
     inkscape:pageopacity="0.0"
     inkscape:pageshadow="2"
     inkscape:zoom="0.69999999"
     inkscape:cx="-72.452982"
     inkscape:cy="52.661068"
     inkscape:document-units="mm"
     inkscape:current-layer="layer1"
     showgrid="false"
     fit-margin-top="0"
     fit-margin-left="0"
     fit-margin-right="0"
     fit-margin-bottom="0"
     inkscape:window-width="1360"
     inkscape:window-height="719"
     inkscape:window-x="0"
     inkscape:window-y="25"
     inkscape:window-maximized="1" />
  <metadata
     id="metadata1096">
    <rdf:RDF>
      <cc:Work
         rdf:about="">
        <dc:format>image/svg+xml</dc:format>
        <dc:type
           rdf:resource="http://purl.org/dc/dcmitype/StillImage" />
        <dc:title></dc:title>
      </cc:Work>
    </rdf:RDF>
  </metadata>
  <g
     inkscape:label="Layer 1"
     inkscape:groupmode="layer"
     id="layer1"
     transform="translate(-62.8,-192.73541)">
    <g
       id="g876">
      <g
         style="fill:#5f6772;fill-opacity:1"
         transform="matrix(0.35277777,0,0,-0.35277777,66.538739,218.75947)"
         id="g80">
        <path
           inkscape:connector-curvature="0"
           id="path82"
           style="fill:#5f6772;fill-opacity:1;fill-rule:nonzero;stroke:none"
           d="m 0,0 v 46.905 h -10.598 v 4.512 H 0 v 4.618 c 0,10.283 4.092,17.734 15.53,17.734 3.883,0 7.346,-1.365 10.284,-3.568 l -2.519,-3.778 c -2.833,1.679 -4.826,2.623 -7.975,2.623 -6.506,0 -10.283,-3.987 -10.283,-13.011 V 51.417 H 22.141 V 46.905 H 5.037 V 0 Z" />
      </g>
      <path
         inkscape:connector-curvature="0"
         id="path84"
         style="fill:#5f6772;fill-opacity:1;fill-rule:nonzero;stroke:none;stroke-width:0.35277778"
         d="m 80.419874,218.75961 h -1.813983 v -25.91294 h 1.813983 z" />
      <g
         style="fill:#5f6772;fill-opacity:1"
         transform="matrix(0.35277777,0,0,-0.35277777,86.305301,209.616)"
         id="g86">
        <path
           inkscape:connector-curvature="0"
           id="path88"
           style="fill:#5f6772;fill-opacity:1;fill-rule:nonzero;stroke:none"
           d="m 0,0 c 0,-13.012 9.444,-21.721 21.197,-21.721 28.857,0 28.857,43.338 0,43.338 C 9.444,21.617 0,13.012 0,0 m 47.535,25.919 v -51.837 h -5.141 v 11.017 c -5.038,-8.08 -12.803,-11.857 -21.197,-11.857 -14.481,0 -26.339,10.913 -26.339,26.758 0,15.845 11.858,26.548 26.339,26.548 8.394,0 16.894,-3.882 21.197,-11.962 v 11.333 z" />
      </g>
      <g
         style="fill:#5f6772;fill-opacity:1"
         transform="matrix(0.35277777,0,0,-0.35277777,135.09457,218.75947)"
         id="g90">
        <path
           inkscape:connector-curvature="0"
           id="path92"
           style="fill:#5f6772;fill-opacity:1;fill-rule:nonzero;stroke:none"
           d="m 0,0 v 31.06 c 0,9.969 -6.716,17 -16.58,17 -9.863,0 -16.685,-7.346 -16.685,-17.314 V 0 h -5.141 v 30.746 c 0,9.968 -6.821,17.209 -16.685,17.209 -9.864,0 -16.58,-7.241 -16.58,-17.209 V 0 h -5.142 v 51.837 h 4.828 l 0.104,-8.605 c 3.568,6.821 10.179,9.655 16.895,9.655 7.87,0 16.16,-3.568 19.203,-12.803 3.148,8.5 11.228,12.803 19.203,12.803 12.697,0 21.722,-8.92 21.722,-21.827 L 5.142,0 Z" />
      </g>
      <path
         inkscape:connector-curvature="0"
         id="path94"
         style="fill:#5f6772;fill-opacity:1;fill-rule:nonzero;stroke:none;stroke-width:0.35277778"
         d="m 142.01522,218.75961 h 1.81399 v -18.36103 h -1.81399 z m 2.40595,-24.24712 c 0,1.92511 -2.92418,1.92511 -2.92418,0 0,-1.92511 2.92418,-1.92511 2.92418,0" />
      <g
         style="fill:#8bd7b2;fill-opacity:1"
         transform="matrix(0.35277777,0,0,-0.35277777,149.97361,209.06083)"
         id="g96">
        <path
           inkscape:connector-curvature="0"
           id="path98"
           style="fill:#8bd7b2;fill-opacity:1;fill-rule:nonzero;stroke:none"
           d="m 0,0 c 0,-10.703 7.345,-19.937 19.203,-19.937 10.703,0 19.412,9.234 19.412,19.937 0,13.117 -8.709,20.147 -19.412,20.147 C 8.604,20.147 0,13.537 0,0 m 38.931,26.444 3.357,-2.939 -5.036,-5.876 c 3.672,-3.987 6.4,-9.234 6.4,-17.629 0,-9.024 -5.351,-18.153 -13.956,-22.036 9.129,-3.253 14.166,-9.653 14.166,-18.573 0,-13.956 -10.913,-20.672 -24.659,-20.672 -13.747,0 -24.555,7.555 -24.555,20.672 h 5.142 c 0,-10.598 9.024,-15.635 19.413,-15.635 10.388,0 19.622,4.617 19.622,15.635 0,11.123 -9.969,15.53 -19.622,15.53 -15.006,0 -24.345,11.228 -24.345,25.079 0,16.16 10.913,25.29 24.345,25.29 5.246,0 10.703,-1.889 14.691,-4.723 z" />
      </g>
      <g
         style="fill:#5f6772;fill-opacity:1"
         transform="matrix(0.35277777,0,0,-0.35277777,185.06635,209.65304)"
         id="g100">
        <path
           inkscape:connector-curvature="0"
           id="path102"
           style="fill:#5f6772;fill-opacity:1;fill-rule:nonzero;stroke:none"
           d="m 0,0 c 0,13.432 -9.549,22.141 -21.302,22.141 -11.753,0 -21.302,-8.709 -21.302,-22.141 0,-13.432 9.549,-21.512 21.302,-21.512 C -9.549,-21.512 0,-13.432 0,0 m -47.641,0 c 0,16.475 11.753,26.968 26.339,26.968 14.586,0 26.339,-10.493 26.339,-26.968 0,-16.475 -11.753,-26.548 -26.339,-26.548 -14.586,0 -26.339,10.073 -26.339,26.548" />
      </g>
      <g
         transform="matrix(0.35277777,0,0,-0.35277777,158.26796,208.773)"
         id="g72-8">
        <path
           inkscape:connector-curvature="0"
           id="path74-2"
           style="fill:#f8726d;fill-opacity:1;fill-rule:nonzero;stroke:none"
           d="m 0,0 c 0,-1.922 -1.558,-3.48 -3.48,-3.48 -1.922,0 -3.48,1.558 -3.48,3.48 0,1.922 1.558,3.48 3.48,3.48 C -1.558,3.48 0,1.922 0,0" />
      </g>
    </g>
  </g>
</svg>
